<?xml version="1.0" encoding="UTF-8" standalone="no"?>
<!-- Created with Inkscape (http://www.inkscape.org/) -->
<svg
   xmlns:dc="http://purl.org/dc/elements/1.1/"
   xmlns:cc="http://web.resource.org/cc/"
   xmlns:rdf="http://www.w3.org/1999/02/22-rdf-syntax-ns#"
   xmlns:svg="http://www.w3.org/2000/svg"
   xmlns="http://www.w3.org/2000/svg"
   xmlns:xlink="http://www.w3.org/1999/xlink"
   xmlns:sodipodi="http://sodipodi.sourceforge.net/DTD/sodipodi-0.dtd"
   xmlns:inkscape="http://www.inkscape.org/namespaces/inkscape"
   width="550"
   height="50"
   id="svg2"
   sodipodi:version="0.32"
   inkscape:version="0.45.1"
   sodipodi:docbase="/data/user/stevencrc/documents/projects/Cutter/art"
   sodipodi:docname="cutter_tab_finish.svg"
   inkscape:output_extension="org.inkscape.output.svg.inkscape"
   version="1.0"
   inkscape:export-filename="/data/user/stevencrc/documents/projects/Cutter/art/cutter_tab_finish.png"
   inkscape:export-xdpi="90"
   inkscape:export-ydpi="90">
  <defs
     id="defs4">
    <linearGradient
       id="linearGradient23064">
      <stop
         style="stop-color:#656161;stop-opacity:1;"
         offset="0"
         id="stop23066" />
      <stop
         style="stop-color:#929292;stop-opacity:1;"
         offset="1"
         id="stop23068" />
    </linearGradient>
    <linearGradient
       id="linearGradient20026">
      <stop
         style="stop-color:#ff0000;stop-opacity:1;"
         offset="0"
         id="stop20028" />
      <stop
         id="stop20034"
         offset="0.5"
         style="stop-color:#fe0014;stop-opacity:1;" />
      <stop
         style="stop-color:#fdff00;stop-opacity:1;"
         offset="1"
         id="stop20030" />
    </linearGradient>
    <linearGradient
       id="linearGradient15083">
      <stop
         style="stop-color:#000000;stop-opacity:1;"
         offset="0"
         id="stop15085" />
      <stop
         style="stop-color:#363232;stop-opacity:1;"
         offset="1"
         id="stop15087" />
    </linearGradient>
    <linearGradient
       id="linearGradient12060">
      <stop
         style="stop-color:#7b7777;stop-opacity:1;"
         offset="0"
         id="stop12062" />
      <stop
         style="stop-color:#7b7777;stop-opacity:0.26262626;"
         offset="1"
         id="stop12064" />
    </linearGradient>
    <linearGradient
       id="linearGradient7180">
      <stop
         style="stop-color:#000000;stop-opacity:1;"
         offset="0"
         id="stop7182" />
      <stop
         style="stop-color:#3f3f3f;stop-opacity:1;"
         offset="1"
         id="stop7184" />
    </linearGradient>
    <linearGradient
       id="linearGradient4145">
      <stop
         style="stop-color:#d8d8d8;stop-opacity:1;"
         offset="0"
         id="stop4147" />
      <stop
         style="stop-color:#d8d8d8;stop-opacity:0.79797977;"
         offset="1"
         id="stop4149" />
    </linearGradient>
    <linearGradient
       id="linearGradient4137">
      <stop
         style="stop-color:#000000;stop-opacity:1;"
         offset="0"
         id="stop4139" />
      <stop
         style="stop-color:#000000;stop-opacity:0;"
         offset="1"
         id="stop4141" />
    </linearGradient>
    <linearGradient
       id="linearGradient4125">
      <stop
         style="stop-color:#0d0058;stop-opacity:1;"
         offset="0"
         id="stop4127" />
      <stop
         style="stop-color:#241480;stop-opacity:1;"
         offset="1"
         id="stop4129" />
    </linearGradient>
    <radialGradient
       inkscape:collect="always"
       xlink:href="#linearGradient4125"
       id="radialGradient4135"
       cx="193.9493"
       cy="397.78333"
       fx="193.9493"
       fy="397.78333"
       r="168.18532"
       gradientTransform="matrix(0.1183998,0,0,2.8797237e-2,-206.99155,491.10431)"
       gradientUnits="userSpaceOnUse" />
    <linearGradient
       inkscape:collect="always"
       xlink:href="#linearGradient4137"
       id="linearGradient4143"
       x1="274.88016"
       y1="301.75385"
       x2="498.9527"
       y2="301.75385"
       gradientUnits="userSpaceOnUse"
       gradientTransform="matrix(-3.4511871e-2,-0.1132583,0.1132583,-3.4511871e-2,496.01869,65.242259)" />
    <radialGradient
       inkscape:collect="always"
       xlink:href="#linearGradient4145"
       id="radialGradient4153"
       cx="386.91644"
       cy="301.75385"
       fx="386.91644"
       fy="301.75385"
       r="112.03626"
       gradientTransform="matrix(-3.4511871e-2,-0.1132583,0.1355967,-4.1318794e-2,489.27801,67.296271)"
       gradientUnits="userSpaceOnUse" />
    <radialGradient
       inkscape:collect="always"
       xlink:href="#linearGradient15083"
       id="radialGradient18062"
       cx="200"
       cy="150"
       fx="200"
       fy="150"
       r="200"
       gradientTransform="matrix(1.3786588,0,0,0.1237344,-0.7317388,6.4398409)"
       gradientUnits="userSpaceOnUse" />
  </defs>
  <sodipodi:namedview
     id="base"
     pagecolor="#ffffff"
     bordercolor="#666666"
     borderopacity="1.0"
     inkscape:pageopacity="0.0"
     inkscape:pageshadow="2"
     inkscape:zoom="1.4"
     inkscape:cx="204.5864"
     inkscape:cy="-115.05389"
     inkscape:document-units="px"
     inkscape:current-layer="layer4"
     inkscape:window-width="1024"
     inkscape:window-height="720"
     inkscape:window-x="7"
     inkscape:window-y="24"
     width="550px"
     height="50px" />
  <metadata
     id="metadata7">
    <rdf:RDF>
      <cc:Work
         rdf:about="">
        <dc:format>image/svg+xml</dc:format>
        <dc:type
           rdf:resource="http://purl.org/dc/dcmitype/StillImage" />
      </cc:Work>
    </rdf:RDF>
  </metadata>
  <g
     inkscape:groupmode="layer"
     id="layer4"
     inkscape:label="background">
    <rect
       style="opacity:1;fill:url(#radialGradient18062);fill-opacity:1;stroke:none;stroke-width:0.77401072;stroke-miterlimit:4;stroke-dasharray:none;stroke-dashoffset:0;stroke-opacity:1"
       id="rect5232"
       width="549.22595"
       height="49.22599"
       x="0.38700536"
       y="0.3869954" />
  </g>
  <g
     inkscape:groupmode="layer"
     id="layer7"
     inkscape:label="title">
    <text
       xml:space="preserve"
       style="font-size:32px;font-style:normal;font-variant:normal;font-weight:bold;font-stretch:normal;text-align:start;line-height:125%;writing-mode:lr-tb;text-anchor:start;fill:#000000;fill-opacity:1;stroke:#ff0000;stroke-width:1px;stroke-linecap:butt;stroke-linejoin:miter;stroke-opacity:1;font-family:Bitstream Vera Sans"
       x="10.088169"
       y="36.648438"
       id="text24045"
       sodipodi:linespacing="125%"><tspan
         sodipodi:role="line"
         id="tspan24047"
         x="10.088169"
         y="36.648438">FINISH</tspan></text>
  </g>
  <g
     inkscape:groupmode="layer"
     id="layer6"
     inkscape:label="cutter_subtitle">
    <text
       xml:space="preserve"
       style="font-size:6.51523256px;font-style:italic;font-variant:normal;font-weight:bold;font-stretch:normal;text-align:start;line-height:100%;writing-mode:lr-tb;text-anchor:start;fill:#000000;fill-opacity:1;stroke:#ffff00;stroke-width:0.46537375px;stroke-linecap:butt;stroke-linejoin:miter;stroke-opacity:1;font-family:Arial Black"
       x="435.06766"
       y="43.985336"
       id="text22091"
       sodipodi:linespacing="100%"><tspan
         sodipodi:role="line"
         id="tspan22093"
         x="435.06766"
         y="43.985336"
         style="font-size:6.51523256px;font-style:italic;font-variant:normal;font-weight:bold;font-stretch:normal;text-align:start;line-height:100%;writing-mode:lr-tb;text-anchor:start;fill:#000000;fill-opacity:1;stroke:#ffff00;stroke-width:0.46537375;stroke-opacity:1;font-family:Arial Black">A program for cut files</tspan></text>
  </g>
  <g
     inkscape:groupmode="layer"
     id="layer5"
     inkscape:label="cutter_logo">
    <text
       xml:space="preserve"
       style="font-size:29.78392029px;font-style:italic;font-variant:normal;font-weight:bold;font-stretch:normal;text-align:start;line-height:125%;writing-mode:lr-tb;text-anchor:start;opacity:1;fill:#000000;fill-opacity:1;stroke:#23ff00;stroke-width:0.97728485;stroke-linecap:butt;stroke-linejoin:miter;stroke-miterlimit:4;stroke-dasharray:none;stroke-dashoffset:0;stroke-opacity:1;font-family:Sans"
       x="376.09351"
       y="32.120895"
       id="text8157"
       sodipodi:linespacing="125%"><tspan
         sodipodi:role="line"
         id="tspan8159"
         x="376.09351"
         y="32.120895"
         style="font-size:29.78392029px;font-style:italic;font-variant:normal;font-weight:bold;font-stretch:normal;text-align:start;line-height:125%;writing-mode:lr-tb;text-anchor:start;fill:#000000;fill-opacity:1;stroke:#23ff00;stroke-width:0.97728485;stroke-miterlimit:4;stroke-dasharray:none;stroke-dashoffset:0;stroke-opacity:1;font-family:Sans">CUTTER</tspan></text>
  </g>
  <g
     inkscape:label="cutter"
     inkscape:groupmode="layer"
     id="layer1">
    <path
       style="fill:url(#radialGradient4153);fill-opacity:1;stroke:url(#linearGradient4143);stroke-width:0.11839981;stroke-miterlimit:4;stroke-dashoffset:0;stroke-opacity:1"
       inkscape:transform-center-x="13.431572"
       inkscape:transform-center-y="-4.5994725"
       d="M 526.43528,19.50049 L 522.68654,17.598406 L 522.6954,15.255863 L 520.81217,16.647363 L 520.82103,14.304821 L 518.93779,15.696325 L 518.94666,13.353778 L 517.06342,14.745282 L 517.07229,12.402736 L 515.18905,13.79424 L 515.1979,11.451698 L 513.31467,12.843198 L 513.32354,10.500655 L 511.4403,11.892155 C 501.79732,7.0630651 484.87199,-0.63041275 515.76969,3.3595208 L 530.76467,10.967852 C 534.02667,12.622967 535.6873,15.858195 534.48806,18.221735 C 533.28881,20.585276 529.69728,21.155601 526.43528,19.50049 z "
       id="rect2162"
       sodipodi:nodetypes="ccccccccccccccccsc" />
    <rect
       style="opacity:1;fill:url(#radialGradient4135);fill-opacity:1;stroke:#000971;stroke-width:0.13601494;stroke-miterlimit:4;stroke-dasharray:none;stroke-dashoffset:0;stroke-opacity:1"
       id="rect2160"
       width="39.690197"
       height="9.5505333"
       x="-203.87312"
       y="497.78415"
       rx="9.2900581"
       transform="matrix(-0.2914859,-0.9565751,0.9565751,-0.2914859,0,0)" />
  </g>
</svg>
